{
    "page": {
        "page": 999,
        "pageSize": 100,
        "total": 333690,
        "totalPages": 3337
    },
    "data": [
        {
            "id": 298218,
            "gameNo": 2,
            "gameName": "DEF Name",
            "type": "offline",
            "costPrice": 49.99,
            "salePrice": 54.49,
            "dateOfSale": "2024-04-03T06:32:42.000Z"
        },
        {
            "id": 298219,
            "gameNo": 2,
            "gameName": "DEF Name",
            "type": "offline",
            "costPrice": 49.99,
            "salePrice": 54.49,
            "dateOfSale": "2024-04-10T14:27:57.000Z"
        },
        {
            "id": 298220,
            "gameNo": 2,
            "gameName": "DEF Name",
            "type": "offline",
            "costPrice": 49.99,
            "salePrice": 54.49,
            "dateOfSale": "2024-04-15T19:59:20.000Z"
        },
        {
            "id": 298221,
            "gameNo": 2,
            "gameName": "DEF Name",
            "type": "offline",
            "costPrice": 49.99,
            "salePrice": 54.49,
            "dateOfSale": "2024-04-19T15:56:13.000Z"
        },
        {
            "id": 298222,
            "gameNo": 2,
            "gameName": "DEF Name",
            "type": "offline",
            "costPrice": 49.99,
            "salePrice": 54.49,
            "dateOfSale": "2024-04-28T09:59:32.000Z"
        },
        {
            "id": 298224,
            "gameNo": 2,
            "gameName": "DEF Name",
            "type": "offline",
            "costPrice": 49.99,
            "salePrice": 54.49,
            "dateOfSale": "2024-04-01T00:27:11.000Z"
        },
        {
            "id": 298225,
            "gameNo": 2,
            "gameName": "DEF Name",
            "type": "offline",
            "costPrice": 49.99,
            "salePrice": 54.49,
            "dateOfSale": "2024-04-10T07:24:11.000Z"
        },
        {
            "id": 298227,
            "gameNo": 2,
            "gameName": "DEF Name",
            "type": "offline",
            "costPrice": 49.99,
            "salePrice": 54.49,
            "dateOfSale": "2024-04-15T13:53:31.000Z"
        },
        {
            "id": 298234,
            "gameNo": 2,
            "gameName": "DEF Name",
            "type": "offline",
            "costPrice": 49.99,
            "salePrice": 54.49,
            "dateOfSale": "2024-04-20T20:01:27.000Z"
        },
        {
            "id": 298235,
            "gameNo": 2,
            "gameName": "DEF Name",
            "type": "offline",
            "costPrice": 49.99,
            "salePrice": 54.49,
            "dateOfSale": "2024-04-10T21:46:43.000Z"
        },
        {
            "id": 298238,
            "gameNo": 2,
            "gameName": "DEF Name",
            "type": "offline",
            "costPrice": 49.99,
            "salePrice": 54.49,
            "dateOfSale": "2024-04-19T14:12:53.000Z"
        },
        {
            "id": 298239,
            "gameNo": 2,
            "gameName": "DEF Name",
            "type": "offline",
            "costPrice": 49.99,
            "salePrice": 54.49,
            "dateOfSale": "2024-04-10T10:29:17.000Z"
        },
        {
            "id": 298240,
            "gameNo": 2,
            "gameName": "DEF Name",
            "type": "offline",
            "costPrice": 49.99,
            "salePrice": 54.49,
            "dateOfSale": "2024-04-09T22:19:22.000Z"
        },
        {
            "id": 298251,
            "gameNo": 2,
            "gameName": "DEF Name",
            "type": "offline",
            "costPrice": 49.99,
            "salePrice": 54.49,
            "dateOfSale": "2024-04-15T05:13:08.000Z"
        },
        {
            "id": 298252,
            "gameNo": 2,
            "gameName": "DEF Name",
            "type": "offline",
            "costPrice": 49.99,
            "salePrice": 54.49,
            "dateOfSale": "2024-04-23T02:01:54.000Z"
        },
        {
            "id": 298257,
            "gameNo": 2,
            "gameName": "DEF Name",
            "type": "offline",
            "costPrice": 49.99,
            "salePrice": 54.49,
            "dateOfSale": "2024-04-18T13:44:43.000Z"
        },
        {
            "id": 298264,
            "gameNo": 2,
            "gameName": "DEF Name",
            "type": "offline",
            "costPrice": 49.99,
            "salePrice": 54.49,
            "dateOfSale": "2024-04-11T02:33:39.000Z"
        },
        {
            "id": 298267,
            "gameNo": 2,
            "gameName": "DEF Name",
            "type": "offline",
            "costPrice": 49.99,
            "salePrice": 54.49,
            "dateOfSale": "2024-04-12T10:12:26.000Z"
        },
        {
            "id": 298271,
            "gameNo": 2,
            "gameName": "DEF Name",
            "type": "offline",
            "costPrice": 49.99,
            "salePrice": 54.49,
            "dateOfSale": "2024-04-03T16:41:13.000Z"
        },
        {
            "id": 298276,
            "gameNo": 2,
            "gameName": "DEF Name",
            "type": "offline",
            "costPrice": 49.99,
            "salePrice": 54.49,
            "dateOfSale": "2024-04-10T08:59:05.000Z"
        },
        {
            "id": 298280,
            "gameNo": 2,
            "gameName": "DEF Name",
            "type": "offline",
            "costPrice": 49.99,
            "salePrice": 54.49,
            "dateOfSale": "2024-04-06T08:47:38.000Z"
        },
        {
            "id": 298281,
            "gameNo": 2,
            "gameName": "DEF Name",
            "type": "offline",
            "costPrice": 49.99,
            "salePrice": 54.49,
            "dateOfSale": "2024-04-25T20:48:11.000Z"
        },
        {
            "id": 298287,
            "gameNo": 2,
            "gameName": "DEF Name",
            "type": "offline",
            "costPrice": 49.99,
            "salePrice": 54.49,
            "dateOfSale": "2024-04-17T23:36:26.000Z"
        },
        {
            "id": 298290,
            "gameNo": 2,
            "gameName": "DEF Name",
            "type": "offline",
            "costPrice": 49.99,
            "salePrice": 54.49,
            "dateOfSale": "2024-04-15T01:55:47.000Z"
        },
        {
            "id": 298292,
            "gameNo": 2,
            "gameName": "DEF Name",
            "type": "offline",
            "costPrice": 49.99,
            "salePrice": 54.49,
            "dateOfSale": "2024-04-14T22:24:30.000Z"
        },
        {
            "id": 298293,
            "gameNo": 2,
            "gameName": "DEF Name",
            "type": "offline",
            "costPrice": 49.99,
            "salePrice": 54.49,
            "dateOfSale": "2024-04-30T14:13:49.000Z"
        },
        {
            "id": 298297,
            "gameNo": 2,
            "gameName": "DEF Name",
            "type": "offline",
            "costPrice": 49.99,
            "salePrice": 54.49,
            "dateOfSale": "2024-04-30T16:35:10.000Z"
        },
        {
            "id": 298298,
            "gameNo": 2,
            "gameName": "DEF Name",
            "type": "offline",
            "costPrice": 49.99,
            "salePrice": 54.49,
            "dateOfSale": "2024-04-21T22:19:06.000Z"
        },
        {
            "id": 298299,
            "gameNo": 2,
            "gameName": "DEF Name",
            "type": "offline",
            "costPrice": 49.99,
            "salePrice": 54.49,
            "dateOfSale": "2024-04-14T11:24:47.000Z"
        },
        {
            "id": 298300,
            "gameNo": 2,
            "gameName": "DEF Name",
            "type": "offline",
            "costPrice": 49.99,
            "salePrice": 54.49,
            "dateOfSale": "2024-04-24T22:09:20.000Z"
        },
        {
            "id": 298301,
            "gameNo": 2,
            "gameName": "DEF Name",
            "type": "offline",
            "costPrice": 49.99,
            "salePrice": 54.49,
            "dateOfSale": "2024-04-03T08:13:11.000Z"
        },
        {
            "id": 298302,
            "gameNo": 2,
            "gameName": "DEF Name",
            "type": "offline",
            "costPrice": 49.99,
            "salePrice": 54.49,
            "dateOfSale": "2024-04-14T05:36:00.000Z"
        },
        {
            "id": 298303,
            "gameNo": 2,
            "gameName": "DEF Name",
            "type": "offline",
            "costPrice": 49.99,
            "salePrice": 54.49,
            "dateOfSale": "2024-04-29T22:43:51.000Z"
        },
        {
            "id": 298304,
            "gameNo": 2,
            "gameName": "DEF Name",
            "type": "offline",
            "costPrice": 49.99,
            "salePrice": 54.49,
            "dateOfSale": "2024-04-23T12:53:54.000Z"
        },
        {
            "id": 298310,
            "gameNo": 2,
            "gameName": "DEF Name",
            "type": "offline",
            "costPrice": 49.99,
            "salePrice": 54.49,
            "dateOfSale": "2024-04-06T05:10:18.000Z"
        },
        {
            "id": 298311,
            "gameNo": 2,
            "gameName": "DEF Name",
            "type": "offline",
            "costPrice": 49.99,
            "salePrice": 54.49,
            "dateOfSale": "2024-04-09T07:25:54.000Z"
        },
        {
            "id": 298314,
            "gameNo": 2,
            "gameName": "DEF Name",
            "type": "offline",
            "costPrice": 49.99,
            "salePrice": 54.49,
            "dateOfSale": "2024-04-23T13:20:37.000Z"
        },
        {
            "id": 298316,
            "gameNo": 2,
            "gameName": "DEF Name",
            "type": "offline",
            "costPrice": 49.99,
            "salePrice": 54.49,
            "dateOfSale": "2024-04-06T17:00:47.000Z"
        },
        {
            "id": 298317,
            "gameNo": 2,
            "gameName": "DEF Name",
            "type": "offline",
            "costPrice": 49.99,
            "salePrice": 54.49,
            "dateOfSale": "2024-04-02T07:14:45.000Z"
        },
        {
            "id": 298320,
            "gameNo": 2,
            "gameName": "DEF Name",
            "type": "offline",
            "costPrice": 49.99,
            "salePrice": 54.49,
            "dateOfSale": "2024-04-10T05:41:51.000Z"
        },
        {
            "id": 298326,
            "gameNo": 2,
            "gameName": "DEF Name",
            "type": "offline",
            "costPrice": 49.99,
            "salePrice": 54.49,
            "dateOfSale": "2024-04-11T16:20:23.000Z"
        },
        {
            "id": 298327,
            "gameNo": 2,
            "gameName": "DEF Name",
            "type": "offline",
            "costPrice": 49.99,
            "salePrice": 54.49,
            "dateOfSale": "2024-04-25T21:57:13.000Z"
        },
        {
            "id": 298329,
            "gameNo": 2,
            "gameName": "DEF Name",
            "type": "offline",
            "costPrice": 49.99,
            "salePrice": 54.49,
            "dateOfSale": "2024-04-26T19:08:53.000Z"
        },
        {
            "id": 298331,
            "gameNo": 2,
            "gameName": "DEF Name",
            "type": "offline",
            "costPrice": 49.99,
            "salePrice": 54.49,
            "dateOfSale": "2024-04-25T00:17:05.000Z"
        },
        {
            "id": 298333,
            "gameNo": 2,
            "gameName": "DEF Name",
            "type": "offline",
            "costPrice": 49.99,
            "salePrice": 54.49,
            "dateOfSale": "2024-04-26T19:14:53.000Z"
        },
        {
            "id": 298334,
            "gameNo": 2,
            "gameName": "DEF Name",
            "type": "offline",
            "costPrice": 49.99,
            "salePrice": 54.49,
            "dateOfSale": "2024-04-26T14:53:33.000Z"
        },
        {
            "id": 298335,
            "gameNo": 2,
            "gameName": "DEF Name",
            "type": "offline",
            "costPrice": 49.99,
            "salePrice": 54.49,
            "dateOfSale": "2024-04-18T05:30:11.000Z"
        },
        {
            "id": 298340,
            "gameNo": 2,
            "gameName": "DEF Name",
            "type": "offline",
            "costPrice": 49.99,
            "salePrice": 54.49,
            "dateOfSale": "2024-04-10T18:14:47.000Z"
        },
        {
            "id": 298342,
            "gameNo": 2,
            "gameName": "DEF Name",
            "type": "offline",
            "costPrice": 49.99,
            "salePrice": 54.49,
            "dateOfSale": "2024-04-29T19:00:11.000Z"
        },
        {
            "id": 298343,
            "gameNo": 2,
            "gameName": "DEF Name",
            "type": "offline",
            "costPrice": 49.99,
            "salePrice": 54.49,
            "dateOfSale": "2024-04-04T00:15:28.000Z"
        },
        {
            "id": 298345,
            "gameNo": 2,
            "gameName": "DEF Name",
            "type": "offline",
            "costPrice": 49.99,
            "salePrice": 54.49,
            "dateOfSale": "2024-04-21T02:38:05.000Z"
        },
        {
            "id": 298347,
            "gameNo": 2,
            "gameName": "DEF Name",
            "type": "offline",
            "costPrice": 49.99,
            "salePrice": 54.49,
            "dateOfSale": "2024-04-23T18:14:38.000Z"
        },
        {
            "id": 298348,
            "gameNo": 2,
            "gameName": "DEF Name",
            "type": "offline",
            "costPrice": 49.99,
            "salePrice": 54.49,
            "dateOfSale": "2024-04-13T10:04:23.000Z"
        },
        {
            "id": 298350,
            "gameNo": 2,
            "gameName": "DEF Name",
            "type": "offline",
            "costPrice": 49.99,
            "salePrice": 54.49,
            "dateOfSale": "2024-04-20T10:43:12.000Z"
        },
        {
            "id": 298355,
            "gameNo": 2,
            "gameName": "DEF Name",
            "type": "offline",
            "costPrice": 49.99,
            "salePrice": 54.49,
            "dateOfSale": "2024-04-10T01:18:42.000Z"
        },
        {
            "id": 298357,
            "gameNo": 2,
            "gameName": "DEF Name",
            "type": "offline",
            "costPrice": 49.99,
            "salePrice": 54.49,
            "dateOfSale": "2024-04-22T23:21:31.000Z"
        },
        {
            "id": 298358,
            "gameNo": 2,
            "gameName": "DEF Name",
            "type": "offline",
            "costPrice": 49.99,
            "salePrice": 54.49,
            "dateOfSale": "2024-04-09T11:02:55.000Z"
        },
        {
            "id": 298361,
            "gameNo": 2,
            "gameName": "DEF Name",
            "type": "offline",
            "costPrice": 49.99,
            "salePrice": 54.49,
            "dateOfSale": "2024-04-03T04:33:18.000Z"
        },
        {
            "id": 298364,
            "gameNo": 2,
            "gameName": "DEF Name",
            "type": "offline",
            "costPrice": 49.99,
            "salePrice": 54.49,
            "dateOfSale": "2024-04-20T07:34:04.000Z"
        },
        {
            "id": 298370,
            "gameNo": 2,
            "gameName": "DEF Name",
            "type": "offline",
            "costPrice": 49.99,
            "salePrice": 54.49,
            "dateOfSale": "2024-04-22T08:59:51.000Z"
        },
        {
            "id": 298375,
            "gameNo": 2,
            "gameName": "DEF Name",
            "type": "offline",
            "costPrice": 49.99,
            "salePrice": 54.49,
            "dateOfSale": "2024-04-28T18:10:33.000Z"
        },
        {
            "id": 298377,
            "gameNo": 2,
            "gameName": "DEF Name",
            "type": "offline",
            "costPrice": 49.99,
            "salePrice": 54.49,
            "dateOfSale": "2024-04-02T05:13:46.000Z"
        },
        {
            "id": 298378,
            "gameNo": 2,
            "gameName": "DEF Name",
            "type": "offline",
            "costPrice": 49.99,
            "salePrice": 54.49,
            "dateOfSale": "2024-04-01T09:35:11.000Z"
        },
        {
            "id": 298381,
            "gameNo": 2,
            "gameName": "DEF Name",
            "type": "offline",
            "costPrice": 49.99,
            "salePrice": 54.49,
            "dateOfSale": "2024-04-16T17:40:31.000Z"
        },
        {
            "id": 298386,
            "gameNo": 2,
            "gameName": "DEF Name",
            "type": "offline",
            "costPrice": 49.99,
            "salePrice": 54.49,
            "dateOfSale": "2024-04-29T18:32:13.000Z"
        },
        {
            "id": 298387,
            "gameNo": 2,
            "gameName": "DEF Name",
            "type": "offline",
            "costPrice": 49.99,
            "salePrice": 54.49,
            "dateOfSale": "2024-04-21T05:49:09.000Z"
        },
        {
            "id": 298388,
            "gameNo": 2,
            "gameName": "DEF Name",
            "type": "offline",
            "costPrice": 49.99,
            "salePrice": 54.49,
            "dateOfSale": "2024-04-17T02:25:10.000Z"
        },
        {
            "id": 298393,
            "gameNo": 2,
            "gameName": "DEF Name",
            "type": "offline",
            "costPrice": 49.99,
            "salePrice": 54.49,
            "dateOfSale": "2024-04-16T11:14:19.000Z"
        },
        {
            "id": 298395,
            "gameNo": 2,
            "gameName": "DEF Name",
            "type": "offline",
            "costPrice": 49.99,
            "salePrice": 54.49,
            "dateOfSale": "2024-04-30T23:04:45.000Z"
        },
        {
            "id": 298397,
            "gameNo": 2,
            "gameName": "DEF Name",
            "type": "offline",
            "costPrice": 49.99,
            "salePrice": 54.49,
            "dateOfSale": "2024-04-27T16:48:39.000Z"
        },
        {
            "id": 298400,
            "gameNo": 2,
            "gameName": "DEF Name",
            "type": "offline",
            "costPrice": 49.99,
            "salePrice": 54.49,
            "dateOfSale": "2024-04-07T16:52:15.000Z"
        },
        {
            "id": 298401,
            "gameNo": 2,
            "gameName": "DEF Name",
            "type": "offline",
            "costPrice": 49.99,
            "salePrice": 54.49,
            "dateOfSale": "2024-04-20T05:32:18.000Z"
        },
        {
            "id": 298403,
            "gameNo": 2,
            "gameName": "DEF Name",
            "type": "offline",
            "costPrice": 49.99,
            "salePrice": 54.49,
            "dateOfSale": "2024-04-30T21:48:02.000Z"
        },
        {
            "id": 298406,
            "gameNo": 2,
            "gameName": "DEF Name",
            "type": "offline",
            "costPrice": 49.99,
            "salePrice": 54.49,
            "dateOfSale": "2024-04-02T12:34:30.000Z"
        },
        {
            "id": 298415,
            "gameNo": 2,
            "gameName": "DEF Name",
            "type": "offline",
            "costPrice": 49.99,
            "salePrice": 54.49,
            "dateOfSale": "2024-04-28T18:20:32.000Z"
        },
        {
            "id": 298416,
            "gameNo": 2,
            "gameName": "DEF Name",
            "type": "offline",
            "costPrice": 49.99,
            "salePrice": 54.49,
            "dateOfSale": "2024-04-27T19:33:10.000Z"
        },
        {
            "id": 298418,
            "gameNo": 2,
            "gameName": "DEF Name",
            "type": "offline",
            "costPrice": 49.99,
            "salePrice": 54.49,
            "dateOfSale": "2024-04-18T18:40:43.000Z"
        },
        {
            "id": 298419,
            "gameNo": 2,
            "gameName": "DEF Name",
            "type": "offline",
            "costPrice": 49.99,
            "salePrice": 54.49,
            "dateOfSale": "2024-04-05T20:06:20.000Z"
        },
        {
            "id": 298420,
            "gameNo": 2,
            "gameName": "DEF Name",
            "type": "offline",
            "costPrice": 49.99,
            "salePrice": 54.49,
            "dateOfSale": "2024-04-13T05:11:26.000Z"
        },
        {
            "id": 298423,
            "gameNo": 2,
            "gameName": "DEF Name",
            "type": "offline",
            "costPrice": 49.99,
            "salePrice": 54.49,
            "dateOfSale": "2024-04-09T18:07:33.000Z"
        },
        {
            "id": 298424,
            "gameNo": 2,
            "gameName": "DEF Name",
            "type": "offline",
            "costPrice": 49.99,
            "salePrice": 54.49,
            "dateOfSale": "2024-04-20T16:24:44.000Z"
        },
        {
            "id": 298437,
            "gameNo": 2,
            "gameName": "DEF Name",
            "type": "offline",
            "costPrice": 49.99,
            "salePrice": 54.49,
            "dateOfSale": "2024-04-09T01:27:48.000Z"
        },
        {
            "id": 298439,
            "gameNo": 2,
            "gameName": "DEF Name",
            "type": "offline",
            "costPrice": 49.99,
            "salePrice": 54.49,
            "dateOfSale": "2024-04-03T21:29:57.000Z"
        },
        {
            "id": 298440,
            "gameNo": 2,
            "gameName": "DEF Name",
            "type": "offline",
            "costPrice": 49.99,
            "salePrice": 54.49,
            "dateOfSale": "2024-04-04T19:04:48.000Z"
        },
        {
            "id": 298443,
            "gameNo": 2,
            "gameName": "DEF Name",
            "type": "offline",
            "costPrice": 49.99,
            "salePrice": 54.49,
            "dateOfSale": "2024-04-30T05:02:47.000Z"
        },
        {
            "id": 298444,
            "gameNo": 2,
            "gameName": "DEF Name",
            "type": "offline",
            "costPrice": 49.99,
            "salePrice": 54.49,
            "dateOfSale": "2024-04-27T14:09:45.000Z"
        },
        {
            "id": 298448,
            "gameNo": 2,
            "gameName": "DEF Name",
            "type": "offline",
            "costPrice": 49.99,
            "salePrice": 54.49,
            "dateOfSale": "2024-04-14T14:03:11.000Z"
        },
        {
            "id": 298450,
            "gameNo": 2,
            "gameName": "DEF Name",
            "type": "offline",
            "costPrice": 49.99,
            "salePrice": 54.49,
            "dateOfSale": "2024-04-20T07:15:51.000Z"
        },
        {
            "id": 298453,
            "gameNo": 2,
            "gameName": "DEF Name",
            "type": "offline",
            "costPrice": 49.99,
            "salePrice": 54.49,
            "dateOfSale": "2024-04-04T09:07:57.000Z"
        },
        {
            "id": 298454,
            "gameNo": 2,
            "gameName": "DEF Name",
            "type": "offline",
            "costPrice": 49.99,
            "salePrice": 54.49,
            "dateOfSale": "2024-04-19T11:22:47.000Z"
        },
        {
            "id": 298456,
            "gameNo": 2,
            "gameName": "DEF Name",
            "type": "offline",
            "costPrice": 49.99,
            "salePrice": 54.49,
            "dateOfSale": "2024-04-12T17:22:00.000Z"
        },
        {
            "id": 298459,
            "gameNo": 2,
            "gameName": "DEF Name",
            "type": "offline",
            "costPrice": 49.99,
            "salePrice": 54.49,
            "dateOfSale": "2024-04-11T06:26:45.000Z"
        },
        {
            "id": 298461,
            "gameNo": 2,
            "gameName": "DEF Name",
            "type": "offline",
            "costPrice": 49.99,
            "salePrice": 54.49,
            "dateOfSale": "2024-04-04T13:44:37.000Z"
        },
        {
            "id": 298463,
            "gameNo": 2,
            "gameName": "DEF Name",
            "type": "offline",
            "costPrice": 49.99,
            "salePrice": 54.49,
            "dateOfSale": "2024-04-05T00:55:02.000Z"
        },
        {
            "id": 298467,
            "gameNo": 2,
            "gameName": "DEF Name",
            "type": "offline",
            "costPrice": 49.99,
            "salePrice": 54.49,
            "dateOfSale": "2024-04-24T12:21:04.000Z"
        },
        {
            "id": 298468,
            "gameNo": 2,
            "gameName": "DEF Name",
            "type": "offline",
            "costPrice": 49.99,
            "salePrice": 54.49,
            "dateOfSale": "2024-04-19T19:33:58.000Z"
        },
        {
            "id": 298471,
            "gameNo": 2,
            "gameName": "DEF Name",
            "type": "offline",
            "costPrice": 49.99,
            "salePrice": 54.49,
            "dateOfSale": "2024-04-10T07:14:43.000Z"
        },
        {
            "id": 298472,
            "gameNo": 2,
            "gameName": "DEF Name",
            "type": "offline",
            "costPrice": 49.99,
            "salePrice": 54.49,
            "dateOfSale": "2024-04-16T21:33:46.000Z"
        },
        {
            "id": 298473,
            "gameNo": 2,
            "gameName": "DEF Name",
            "type": "offline",
            "costPrice": 49.99,
            "salePrice": 54.49,
            "dateOfSale": "2024-04-14T14:18:22.000Z"
        },
        {
            "id": 298475,
            "gameNo": 2,
            "gameName": "DEF Name",
            "type": "offline",
            "costPrice": 49.99,
            "salePrice": 54.49,
            "dateOfSale": "2024-04-25T08:03:11.000Z"
        }
    ],
    "fromDate": "2024-04-01",
    "toDate": "2024-04-30"
}